simulacion.vcd
$date
	Sat Jun 13 21:37:50 2026
$end
$version
	Icarus Verilog
$end
$timescale
	1s
$end
$scope module top_tb $end
$var reg 1 ! clk $end
$var reg 1 " reset $end
$scope module uut $end
$var wire 1 # IFID_Write $end
$var wire 1 $ PCSrc $end
$var wire 1 % PCWrite $end
$var wire 1 & branch_taken $end
$var wire 1 ! clk $end
$var wire 1 ' load_use $end
$var wire 1 " reset $end
$var wire 1 ( zero_EX $end
$var wire 32 ) write_data_WB [31:0] $end
$var wire 5 * rs2_ID [4:0] $end
$var wire 5 + rs1_ID [4:0] $end
$var wire 5 , rd_ID [4:0] $end
$var wire 32 - rd2_ID [31:0] $end
$var wire 32 . rd1_ID [31:0] $end
$var wire 32 / pc_plus4_old [31:0] $end
$var wire 32 0 pc_plus4_IF [31:0] $end
$var wire 32 1 pc_next [31:0] $end
$var wire 32 2 pc_branch_EX [31:0] $end
$var wire 7 3 opcode_ID [6:0] $end
$var wire 32 4 mem_out_MEM [31:0] $end
$var wire 32 5 instr_IF [31:0] $end
$var wire 32 6 imm_ID [31:0] $end
$var wire 1 7 func7_ID $end
$var wire 3 8 func3_ID [2:0] $end
$var wire 2 9 forwardB [1:0] $end
$var wire 2 : forwardA [1:0] $end
$var wire 1 ; branch_ID $end
$var wire 32 < alu_result_EX [31:0] $end
$var wire 32 = alu_in_B [31:0] $end
$var wire 4 > alu_ctrl_EX [3:0] $end
$var wire 1 ? RegWrite_ID $end
$var wire 1 @ MemtoReg_ID $end
$var wire 1 A MemWrite_ID $end
$var wire 1 B MemRead_ID $end
$var wire 1 C ALUSrc_ID $end
$var wire 2 D ALUOp_ID [1:0] $end
$var reg 1 E EXMEM_MemRead $end
$var reg 1 F EXMEM_MemWrite $end
$var reg 1 G EXMEM_MemtoReg $end
$var reg 1 H EXMEM_RegWrite $end
$var reg 32 I EXMEM_alu_result [31:0] $end
$var reg 5 J EXMEM_rd [4:0] $end
$var reg 32 K EXMEM_store_data [31:0] $end
$var reg 2 L IDEX_ALUOp [1:0] $end
$var reg 1 M IDEX_ALUSrc $end
$var reg 1 N IDEX_MemRead $end
$var reg 1 O IDEX_MemWrite $end
$var reg 1 P IDEX_MemtoReg $end
$var reg 1 Q IDEX_RegWrite $end
$var reg 1 R IDEX_branch $end
$var reg 3 S IDEX_func3 [2:0] $end
$var reg 1 T IDEX_func7 $end
$var reg 32 U IDEX_imm [31:0] $end
$var reg 32 V IDEX_pc [31:0] $end
$var reg 5 W IDEX_rd [4:0] $end
$var reg 32 X IDEX_rd1 [31:0] $end
$var reg 32 Y IDEX_rd2 [31:0] $end
$var reg 5 Z IDEX_rs1 [4:0] $end
$var reg 5 [ IDEX_rs2 [4:0] $end
$var reg 32 \ IFID_instr [31:0] $end
$var reg 32 ] IFID_pc [31:0] $end
$var reg 1 ^ MEMWB_MemtoReg $end
$var reg 1 _ MEMWB_RegWrite $end
$var reg 32 ` MEMWB_alu_result [31:0] $end
$var reg 32 a MEMWB_mem_out [31:0] $end
$var reg 5 b MEMWB_rd [4:0] $end
$var reg 32 c PC [31:0] $end
$var reg 32 d alu_in_A [31:0] $end
$var reg 32 e forwardB_val [31:0] $end
$scope module alu $end
$var wire 32 f A [31:0] $end
$var wire 32 g B [31:0] $end
$var wire 4 h Control_in [3:0] $end
$var reg 32 i ALU_Result [31:0] $end
$var reg 1 ( zero $end
$upscope $end
$scope module alu_control $end
$var wire 3 j func3 [2:0] $end
$var wire 1 T func7 $end
$var wire 2 k op [1:0] $end
$var reg 4 l control_out [3:0] $end
$upscope $end
$scope module control_unit $end
$var wire 7 m instr [6:0] $end
$var reg 2 n ALUOp [1:0] $end
$var reg 1 C ALUSrc $end
$var reg 1 B MemRead $end
$var reg 1 A MemWrite $end
$var reg 1 @ MemtoReg $end
$var reg 1 ? RegWrite $end
$var reg 1 ; branch $end
$upscope $end
$scope module data_memory $end
$var wire 1 E MemRead $end
$var wire 1 F MemWrite $end
$var wire 32 o Write_data [31:0] $end
$var wire 1 ! clk $end
$var wire 32 p read_address [31:0] $end
$var wire 1 " reset $end
$var wire 32 q MemData_out [31:0] $end
$var integer 32 r k [31:0] $end
$upscope $end
$scope module immediate_generator $end
$var wire 32 s instr [31:0] $end
$var wire 7 t op [6:0] $end
$var reg 32 u imm_ex [31:0] $end
$upscope $end
$scope module inst_memory $end
$var wire 32 v inst_out [31:0] $end
$var wire 32 w read_address [31:0] $end
$upscope $end
$scope module register_file $end
$var wire 1 ! clk $end
$var wire 5 x rd [4:0] $end
$var wire 5 y reg1 [4:0] $end
$var wire 5 z reg2 [4:0] $end
$var wire 1 _ regwrite $end
$var wire 1 " reset $end
$var wire 32 { write_data [31:0] $end
$var wire 32 | rd2 [31:0] $end
$var wire 32 } rd1 [31:0] $end
$var integer 32 ~ k [31:0] $end
$upscope $end
$upscope $end
$upscope $end
$enddefinitions $end
$comment Show the parameter values. $end
$dumpall
$end
#0
$dumpvars
b100000 ~
b0 }
b0 |
b0 {
b0 z
b0 y
b0 x
b0 w
b10100000000000010010011 v
b0 u
b0 t
b0 s
b1000000 r
b0 q
b0 p
b0 o
b0 n
b0 m
b10 l
b0 k
b0 j
b0 i
b10 h
b0 g
b0 f
b0 e
b0 d
b0 c
b0 b
b0 a
b0 `
0_
0^
b0 ]
b0 \
b0 [
b0 Z
b0 Y
b0 X
b0 W
b0 V
b0 U
0T
b0 S
0R
0Q
0P
0O
0N
0M
b0 L
b0 K
b0 J
b0 I
0H
0G
0F
0E
b0 D
0C
0B
0A
0@
0?
b10 >
b0 =
b0 <
0;
b0 :
b0 9
b0 8
07
b0 6
b10100000000000010010011 5
b0 4
b0 3
b0 2
b100 1
b100 0
b100 /
b0 .
b0 -
b0 ,
b0 +
b0 *
b0 )
1(
0'
0&
1%
0$
1#
1"
0!
$end
#5
b1000000 r
1!
#10
0!
0"
#15
b101000000000000100010011 5
b101000000000000100010011 v
1C
1?
b10 D
b10 n
b101 6
b101 u
b1000 1
b10011 3
b10011 m
b10011 t
b101 *
b101 z
b1 ,
b1000 0
b1000 /
b100 c
b100 w
b10100000000000010010011 \
b10100000000000010010011 s
1!
#20
0!
#25
0(
b101 <
b101 i
b1000001000000110110011 5
b1000001000000110110011 v
b101 =
b101 g
b1010 *
b1010 z
b10 ,
b1010 6
b1010 u
b1100 1
b1 W
b101 [
b101 2
b101 U
b10 L
b10 k
1Q
1M
b100 ]
b101000000000000100010011 \
b101000000000000100010011 s
b1100 0
b1100 /
b1000 c
b1000 w
1!
#30
0!
#35
b1000000000100011000001000110011 5
b1000000000100011000001000110011 v
0C
b1010 <
b1010 i
b10000 1
b110011 3
b110011 m
b110011 t
b1 +
b1 y
b10 *
b10 z
b11 ,
b0 6
b0 u
b1010 =
b1010 g
b10000 0
b10000 /
b1100 c
b1100 w
b1000 ]
b1000001000000110110011 \
b1000001000000110110011 s
b10 W
b1010 [
b1010 U
b1110 2
b100 V
b1 J
b101 I
b101 p
1H
1!
#40
0!
#45
b101 d
b101 f
b1 :
b1010 e
b10 9
0(
b1111 <
b1111 i
b1000001110001010110011 5
b1000001110001010110011 v
b101 )
b101 {
b1010 =
b1010 g
b11 +
b11 y
b1 *
b1 z
b100 ,
17
b10100 1
b1 b
b1 x
b101 `
1_
b10 J
b1010 I
b1010 p
b11 W
b10 [
b1 Z
b0 U
b1000 2
b1000 V
0M
b1100 ]
b1000000000100011000001000110011 \
b1000000000100011000001000110011 s
b10100 0
b10100 /
b10000 c
b10000 w
1!
#50
b101 -
b101 |
0!
#55
b101 .
b101 }
b0 -
b0 |
b111001100110011 5
b111001100110011 v
b10 :
b0 9
b1010 <
b1010 i
b101 =
b101 g
b11000 1
b1 +
b1 y
b10 *
b10 z
b101 ,
b110 8
07
b110 >
b110 h
b110 l
b1111 d
b1111 f
b101 e
b1010 )
b1010 {
b11000 0
b11000 /
b10100 c
b10100 w
b10000 ]
b1000001110001010110011 \
b1000001110001010110011 s
1T
b100 W
b1 [
b11 Z
b101 Y
b1100 2
b1100 V
b11 J
b1010 K
b1010 o
b1111 I
b1111 p
b10 b
b10 x
b1010 `
1!
#60
b1010 -
b1010 |
0!
#65
b0 :
b1010 =
b1010 g
b1111 <
b1111 i
b0 .
b0 }
b0 -
b0 |
b100101111001110110011 5
b100101111001110110011 v
b1111 )
b1111 {
b1 >
b1 h
b1 l
b1010 e
b101 d
b101 f
b0 +
b0 y
b0 *
b0 z
b110 ,
b111 8
b11100 1
b11 b
b11 x
b1111 `
b100 J
b101 K
b101 o
b1010 I
b1010 p
0T
b110 S
b110 j
b101 W
b10 [
b1 Z
b1010 Y
b101 X
b10000 2
b10000 V
b10100 ]
b111001100110011 \
b111001100110011 s
b11100 0
b11100 /
b11000 c
b11000 w
1!
#70
0!
#75
b10010000000011 5
b10010000000011 v
b101 -
b101 |
1(
b0 <
b0 i
b0 =
b0 g
b100000 1
b101 +
b101 y
b1 *
b1 z
b111 ,
b0 >
b0 h
b0 l
b0 d
b0 f
b0 e
b1010 )
b1010 {
b100000 0
b100000 /
b11100 c
b11100 w
b11000 ]
b100101111001110110011 \
b100101111001110110011 s
b111 S
b111 j
b110 W
b0 [
b0 Z
b0 Y
b0 X
b10100 2
b10100 V
b101 J
b1010 K
b1010 o
b1111 I
b1111 p
b100 b
b100 x
b1010 `
1!
#80
0!
#85
0(
b101 <
b101 i
b1111 d
b1111 f
b1 :
b101 =
b101 g
1C
1@
1B
b0 D
b0 n
b0 -
b0 |
b101000000010010110011 5
b101000000010010110011 v
b1111 )
b1111 {
b101 e
b11 3
b11 m
b11 t
b0 +
b0 y
b0 *
b0 z
b1000 ,
b10 8
b100100 1
b101 b
b101 x
b1111 `
b110 J
b0 K
b0 o
b0 I
b0 p
b111 W
b1 [
b101 Z
b101 Y
b11000 2
b11000 V
b11100 ]
b10010000000011 \
b10010000000011 s
b100100 0
b100100 /
b100000 c
b100000 w
1!
#90
0!
#95
0%
0#
1'
b0 :
b100001000011001100011 5
b100001000011001100011 v
0C
0@
0B
b10 D
b10 n
b101 -
b101 |
1(
b0 <
b0 i
b101000 1
b110011 3
b110011 m
b110011 t
b1000 +
b1000 y
b1 *
b1 z
b1001 ,
b0 8
b0 6
b0 u
b10 >
b10 h
b10 l
b0 =
b0 g
b0 d
b0 f
b0 e
b0 )
b0 {
b101000 0
b101000 /
b100100 c
b100100 w
b100000 ]
b101000000010010110011 \
b101000000010010110011 s
b10 S
b10 j
b1000 W
b0 [
b0 Z
b0 Y
b11100 2
b11100 V
b0 L
b0 k
1M
1P
1N
b111 J
b101 K
b101 o
b101 I
b101 p
b110 b
b110 x
b0 `
1!
#100
0!
#105
1%
1#
0'
b101 )
b101 {
b111 b
b111 x
b101 `
b1000 J
b0 K
b0 o
b0 I
b0 p
1G
1E
b0 S
b0 j
b0 W
b0 2
b0 V
0Q
0M
0P
0N
1!
#110
0!
#115
b101 .
b101 }
b1 :
0(
b101 <
b101 i
b110001100000000010100010011 5
b110001100000000010100010011 v
0?
1;
b1 D
b1 n
b1100 6
b1100 u
b101 =
b101 g
b101100 1
b1100011 3
b1100011 m
b1100011 t
b1 +
b1 y
b1100 ,
b101 e
b0 )
b0 {
b101100 0
b101100 /
b101000 c
b101000 w
b100100 ]
b100001000011001100011 \
b100001000011001100011 s
b1001 W
b1 [
b1000 Z
b101 Y
b100000 2
b100000 V
b10 L
b10 k
1Q
b0 J
0H
0G
0E
b1000 b
b1000 x
b0 `
1^
1!
#120
0!
#125
1&
1$
1(
b101 d
b101 f
b0 :
b1111 -
b1111 |
b0 <
b0 i
1C
1?
0;
b10 D
b10 n
b0 .
b0 }
b110010000000000010110010011 5
b110010000000000010110010011 v
b110 >
b110 h
b110 l
b10011 3
b10011 m
b10011 t
b0 +
b0 y
b11 *
b11 z
b1010 ,
b1100011 6
b1100011 u
b110000 1
b0 b
b0 x
0_
0^
b1001 J
b101 K
b101 o
b101 I
b101 p
1H
b1100 W
b1 Z
b1100 U
b101 X
b110000 2
b100100 V
b1 L
b1 k
0Q
1R
b101000 ]
b110001100000000010100010011 \
b110001100000000010100010011 s
b110000 0
b110000 /
b101100 c
b101100 w
1!
#130
0!
#135
b100000000011000010011 5
b100000000011000010011 v
0C
0?
b0 D
b0 n
b0 -
b0 |
b0 =
b0 g
b0 3
b0 m
b0 t
b0 *
b0 z
b0 ,
b0 6
b0 u
b110100 1
b10 >
b10 h
b10 l
0&
0$
b0 d
b0 f
b0 e
b101 )
b101 {
b110100 0
b110100 /
b110000 c
b110000 w
b0 ]
b0 \
b0 s
b0 W
b0 [
b0 Z
b0 U
b0 Y
b0 X
b0 2
b0 V
b0 L
b0 k
0R
b1100 J
b0 I
b0 p
0H
b1001 b
b1001 x
b101 `
1_
1!
#140
0!
#145
1C
1?
b10 D
b10 n
b1 6
b1 u
b101 -
b101 |
bx 5
bx v
b0 )
b0 {
b10011 3
b10011 m
b10011 t
b1 *
b1 z
b1100 ,
b111000 1
b1100 b
b1100 x
b0 `
0_
b0 J
b0 K
b0 o
b110000 ]
b100000000011000010011 \
b100000000011000010011 s
b111000 0
b111000 /
b110100 c
b110100 w
1!
#150
0!
#155
0C
0?
b0 D
b0 n
bx .
bx }
bx -
bx |
0(
b1 <
b1 i
b111100 1
bx 3
bx m
bx t
bx +
bx y
bx *
bx z
bx ,
bx 8
x7
b0 6
b0 u
b101 e
b1 =
b1 g
b111100 0
b111100 /
b111000 c
b111000 w
b110100 ]
bx \
bx s
b1100 W
b1 [
b1 U
b101 Y
b110001 2
b110000 V
b10 L
b10 k
1Q
1M
b0 b
b0 x
1!
#160
0!
#165
bx0 9
bx0 :
x(
bx <
bx i
bx e
bx d
bx f
bx =
bx g
b1000000 1
b1100 J
b101 K
b101 o
b1 I
b1 p
1H
xT
bx S
bx j
bx W
bx [
bx Z
b0 U
bx Y
bx X
b110100 2
b110100 V
b0 L
b0 k
0Q
0M
b111000 ]
b1000000 0
b1000000 /
b111100 c
b111100 w
1!
#170
0!
#175
b0x 9
b0x :
b1000100 1
b1 )
b1 {
b1000100 0
b1000100 /
b1000000 c
b1000000 w
b111100 ]
b111000 2
b111000 V
bx J
bx K
bx o
bx I
bx p
0H
b1100 b
b1100 x
b1 `
1_
1!
#180
0!
#185
b0 9
b0 :
bx )
bx {
b1001000 1
bx b
bx x
bx `
0_
b111100 2
b111100 V
b1000000 ]
b1001000 0
b1001000 /
b1000100 c
b1000100 w
1!
#190
0!
#195
b1001100 1
b1001100 0
b1001100 /
b1001000 c
b1001000 w
b1000100 ]
b1000000 2
b1000000 V
1!
#200
0!
#205
b1010000 1
b1000100 2
b1000100 V
b1001000 ]
b1010000 0
b1010000 /
b1001100 c
b1001100 w
1!
#210
0!
#215
b1010100 1
b1010100 0
b1010100 /
b1010000 c
b1010000 w
b1001100 ]
b1001000 2
b1001000 V
1!
#220
0!
#225
b1011000 1
b1001100 2
b1001100 V
b1010000 ]
b1011000 0
b1011000 /
b1010100 c
b1010100 w
1!
#230
0!
#235
b1011100 1
b1011100 0
b1011100 /
b1011000 c
b1011000 w
b1010100 ]
b1010000 2
b1010000 V
1!
#240
0!
#245
b1100000 1
b1010100 2
b1010100 V
b1011000 ]
b1100000 0
b1100000 /
b1011100 c
b1011100 w
1!
#250
0!
#255
b1100100 1
b1100100 0
b1100100 /
b1100000 c
b1100000 w
b1011100 ]
b1011000 2
b1011000 V
1!
#260
0!
#265
b1101000 1
b1011100 2
b1011100 V
b1100000 ]
b1101000 0
b1101000 /
b1100100 c
b1100100 w
1!
#270
0!
#275
b1101100 1
b1101100 0
b1101100 /
b1101000 c
b1101000 w
b1100100 ]
b1100000 2
b1100000 V
1!
#280
0!
#285
b1110000 1
b1100100 2
b1100100 V
b1101000 ]
b1110000 0
b1110000 /
b1101100 c
b1101100 w
1!
#290
0!
#295
b1110100 1
b1110100 0
b1110100 /
b1110000 c
b1110000 w
b1101100 ]
b1101000 2
b1101000 V
1!
#300
0!
#305
b1111000 1
b1101100 2
b1101100 V
b1110000 ]
b1111000 0
b1111000 /
b1110100 c
b1110100 w
1!
